
{
  "type": "mysql",
  "host": "localhost",
  "port": 3306,
  "username": "root",
  "password": "example",
  "database": "messageapp",
  "entities": ["dist/**/*.entity{.ts,.js}"],
  "synchronize": true
}
