{
	"info": {
		"_postman_id": "2a7b7bb7-6b73-495b-a0e1-2d42e9eefd49",
		"name": "MessageApp",
		"schema": "https://schema.getpostman.com/json/collection/v2.1.0/collection.json"
	},
	"item": [
		{
			"name": "POST",
			"request": {
				"method": "POST",
				"header": [],
				"body": {
					"mode": "raw",
					"raw": "{\n    \"nick\": \"Prueba\",\n    \"message\": \"Prueba msg\"\n}",
					"options": {
						"raw": {
							"language": "json"
						}
					}
				},
				"url": {
					"raw": "{{URL}}/{{MESSAGES}}",
					"host": [
						"{{URL}}"
					],
					"path": [
						"{{MESSAGES}}"
					]
				}
			},
			"response": [
				{
					"name": "POST",
					"originalRequest": {
						"method": "POST",
						"header": [],
						"body": {
							"mode": "raw",
							"raw": "{\n    \"nick\": \"Prueba\",\n    \"message\": \"Prueba msg\"\n}",
							"options": {
								"raw": {
									"language": "json"
								}
							}
						},
						"url": {
							"raw": "{{URL}}/{{MESSAGES}}",
							"host": [
								"{{URL}}"
							],
							"path": [
								"{{MESSAGES}}"
							]
						}
					},
					"status": "Created",
					"code": 201,
					"_postman_previewlanguage": "json",
					"header": [
						{
							"key": "X-Powered-By",
							"value": "Express"
						},
						{
							"key": "Content-Type",
							"value": "application/json; charset=utf-8"
						},
						{
							"key": "Content-Length",
							"value": "47"
						},
						{
							"key": "ETag",
							"value": "W/\"2f-PUnBwM3/H4Hx2mhhofhSjKku9ks\""
						},
						{
							"key": "Date",
							"value": "Tue, 23 Mar 2021 18:39:02 GMT"
						},
						{
							"key": "Connection",
							"value": "keep-alive"
						}
					],
					"cookie": [],
					"body": "{\n    \"message\": \"Prueba msg\",\n    \"nick\": \"Prueba\",\n    \"id\": 2\n}"
				}
			]
		},
		{
			"name": "GET",
			"request": {
				"method": "GET",
				"header": [],
				"url": {
					"raw": "{{URL}}/{{MESSAGES}}",
					"host": [
						"{{URL}}"
					],
					"path": [
						"{{MESSAGES}}"
					]
				}
			},
			"response": []
		},
		{
			"name": "PUT",
			"request": {
				"method": "PUT",
				"header": [],
				"body": {
					"mode": "raw",
					"raw": "    {\n        \"id\": 1,\n        \"nick\": \"Test 2\",\n        \"message\": \"Prueba msg\"\n    }",
					"options": {
						"raw": {
							"language": "json"
						}
					}
				},
				"url": {
					"raw": "{{URL}}/{{MESSAGES}}/1",
					"host": [
						"{{URL}}"
					],
					"path": [
						"{{MESSAGES}}",
						"1"
					]
				}
			},
			"response": []
		},
		{
			"name": "DELETE",
			"request": {
				"method": "DELETE",
				"header": [],
				"url": {
					"raw": "{{URL}}/{{MESSAGES}}/1",
					"host": [
						"{{URL}}"
					],
					"path": [
						"{{MESSAGES}}",
						"1"
					]
				}
			},
			"response": []
		}
	],
	"variable": [
		{
			"key": "URL",
			"value": ""
		},
		{
			"key": "MESSAGES",
			"value": ""
		}
	]
}